\relax 
\providecommand\hyper@newdestlabel[2]{}
\@setckpt{abbreviations}{
\setcounter{page}{54}
\setcounter{equation}{0}
\setcounter{enumi}{4}
\setcounter{enumii}{0}
\setcounter{enumiii}{0}
\setcounter{enumiv}{0}
\setcounter{footnote}{0}
\setcounter{mpfootnote}{0}
\setcounter{part}{0}
\setcounter{chapter}{5}
\setcounter{section}{0}
\setcounter{subsection}{4}
\setcounter{subsubsection}{0}
\setcounter{paragraph}{0}
\setcounter{subparagraph}{0}
\setcounter{figure}{0}
\setcounter{table}{0}
\setcounter{parentequation}{0}
\setcounter{FancyVerbLine}{0}
\setcounter{NAT@ctr}{1}
\setcounter{dirtytalk@qdepth}{0}
\setcounter{lips@count}{0}
\setcounter{Item}{24}
\setcounter{Hfootnote}{0}
\setcounter{bookmark@seq@number}{46}
\setcounter{thm}{0}
\setcounter{defn}{0}
\setcounter{section@level}{2}
}
