\relax 
\providecommand\hyper@newdestlabel[2]{}
\@writefile{toc}{\contentsline {chapter}{\numberline {A}WeFrag Analysis}{55}{appendix.A}}
\@writefile{lof}{\addvspace {10\p@ }}
\@writefile{lot}{\addvspace {10\p@ }}
\newlabel{Analysis}{{A}{55}{WeFrag Analysis}{appendix.A}{}}
\@writefile{toc}{\contentsline {section}{\numberline {A.1}Parallelization}{56}{section.A.1}}
\@writefile{toc}{\contentsline {section}{\numberline {A.2}Client-Server Communication}{56}{section.A.2}}
\@writefile{toc}{\contentsline {section}{\numberline {A.3}Optimization}{57}{section.A.3}}
\@writefile{toc}{\contentsline {subsection}{\numberline {A.3.1}Caching}{58}{subsection.A.3.1}}
\@writefile{toc}{\contentsline {subsection}{\numberline {A.3.2}Better sorting algorithm}{58}{subsection.A.3.2}}
\@writefile{toc}{\contentsline {subsection}{\numberline {A.3.3}Memory optimization}{58}{subsection.A.3.3}}
\@writefile{toc}{\contentsline {subsection}{\numberline {A.3.4}C++ vs Python}{59}{subsection.A.3.4}}
\@setckpt{analysis}{
\setcounter{page}{60}
\setcounter{equation}{0}
\setcounter{enumi}{4}
\setcounter{enumii}{0}
\setcounter{enumiii}{0}
\setcounter{enumiv}{0}
\setcounter{footnote}{0}
\setcounter{mpfootnote}{0}
\setcounter{part}{0}
\setcounter{chapter}{1}
\setcounter{section}{3}
\setcounter{subsection}{4}
\setcounter{subsubsection}{0}
\setcounter{paragraph}{0}
\setcounter{subparagraph}{0}
\setcounter{figure}{0}
\setcounter{table}{0}
\setcounter{parentequation}{0}
\setcounter{FancyVerbLine}{0}
\setcounter{NAT@ctr}{18}
\setcounter{dirtytalk@qdepth}{0}
\setcounter{lips@count}{0}
\setcounter{blindtext}{1}
\setcounter{Blindtext}{5}
\setcounter{blind@countparstart}{0}
\setcounter{blindlist}{0}
\setcounter{blindlistlevel}{0}
\setcounter{blindlist@level}{0}
\setcounter{blind@listcount}{0}
\setcounter{blind@levelcount}{0}
\setcounter{blind@randomcount}{0}
\setcounter{blind@randommax}{0}
\setcounter{blind@pangramcount}{0}
\setcounter{blind@pangrammax}{0}
\setcounter{Item}{18}
\setcounter{Hfootnote}{0}
\setcounter{bookmark@seq@number}{50}
\setcounter{thm}{0}
\setcounter{defn}{0}
\setcounter{section@level}{2}
}
