\relax 
\providecommand\hyper@newdestlabel[2]{}
\bibstyle{unsrt}
\bibdata{bibliography}
\bibcite{TodeschiniCnsonni}{{1}{}{{}}{{}}}
\bibcite{HokszaSkoda}{{2}{}{{}}{{}}}
\bibcite{LipinskiHopkins}{{3}{}{{}}{{}}}
\bibcite{Bohacek}{{4}{}{{}}{{}}}
\bibcite{VS}{{5}{}{{}}{{}}}
\bibcite{Maggiora}{{6}{}{{}}{{}}}
\bibcite{Petterson}{{7}{}{{}}{{}}}
\bibcite{Stahura}{{8}{}{{}}{{}}}
\bibcite{Lombardo}{{9}{}{{}}{{}}}
\bibcite{Lionta}{{10}{}{{}}{{}}}
\bibcite{Todeschini}{{11}{}{{}}{{}}}
\bibcite{fingerprint}{{12}{}{{}}{{}}}
\bibcite{PaDEL}{{13}{}{{}}{{}}}
\bibcite{RDKit}{{14}{}{{}}{{}}}
\bibcite{CDK}{{15}{}{{}}{{}}}
\@writefile{toc}{\contentsline {chapter}{Bibliography}{47}{chapter*.11}}
\bibcite{CDL}{{16}{}{{}}{{}}}
\bibcite{TT}{{17}{}{{}}{{}}}
\bibcite{ECFP}{{18}{}{{}}{{}}}
\bibcite{ecfpFrag}{{19}{}{{}}{{}}}
\bibcite{Annealing}{{20}{}{{}}{{}}}
\bibcite{Bench}{{21}{}{{}}{{}}}
\@setckpt{bibliography}{
\setcounter{page}{49}
\setcounter{equation}{0}
\setcounter{enumi}{4}
\setcounter{enumii}{0}
\setcounter{enumiii}{0}
\setcounter{enumiv}{0}
\setcounter{footnote}{0}
\setcounter{mpfootnote}{0}
\setcounter{part}{0}
\setcounter{chapter}{6}
\setcounter{section}{1}
\setcounter{subsection}{0}
\setcounter{subsubsection}{0}
\setcounter{paragraph}{0}
\setcounter{subparagraph}{0}
\setcounter{figure}{0}
\setcounter{table}{0}
\setcounter{parentequation}{0}
\setcounter{FancyVerbLine}{0}
\setcounter{NAT@ctr}{21}
\setcounter{dirtytalk@qdepth}{0}
\setcounter{lips@count}{0}
\setcounter{blindtext}{1}
\setcounter{Blindtext}{5}
\setcounter{blind@countparstart}{0}
\setcounter{blindlist}{0}
\setcounter{blindlistlevel}{0}
\setcounter{blindlist@level}{0}
\setcounter{blind@listcount}{0}
\setcounter{blind@levelcount}{0}
\setcounter{blind@randomcount}{0}
\setcounter{blind@randommax}{0}
\setcounter{blind@pangramcount}{0}
\setcounter{blind@pangrammax}{0}
\setcounter{Item}{14}
\setcounter{Hfootnote}{0}
\setcounter{bookmark@seq@number}{46}
\setcounter{thm}{0}
\setcounter{defn}{0}
\setcounter{section@level}{1}
}
