\relax 
\providecommand\hyper@newdestlabel[2]{}
\citation{Bench}
\citation{HokszaSkoda}
\citation{Bench}
\@writefile{toc}{\contentsline {chapter}{\numberline {5}Experiments}{29}{chapter.5}}
\@writefile{lof}{\addvspace {10\p@ }}
\@writefile{lot}{\addvspace {10\p@ }}
\@writefile{toc}{\contentsline {section}{\numberline {5.1}Data used}{29}{section.5.1}}
\newlabel{Data}{{5.1}{29}{Data used}{section.5.1}{}}
\@writefile{toc}{\contentsline {section}{\numberline {5.2}Focus of experiments}{29}{section.5.2}}
\@writefile{toc}{\contentsline {section}{\numberline {5.3}Results of experiments}{30}{section.5.3}}
\@writefile{lot}{\contentsline {table}{\numberline {5.1}{\ignorespaces The color scheme}}{30}{table.5.1}}
\newlabel{colors}{{5.1}{30}{The color scheme}{table.5.1}{}}
\@writefile{toc}{\contentsline {subsection}{\numberline {5.3.1}Fragments, descriptors, similarity functions}{30}{subsection.5.3.1}}
\newlabel{Fragments}{{5.3.1}{30}{Fragments, descriptors, similarity functions}{subsection.5.3.1}{}}
\@writefile{toc}{\contentsline {subsubsection}{Train Data}{31}{section*.3}}
\@writefile{lot}{\contentsline {table}{\numberline {5.2}{\ignorespaces Train without weights / Train with weights - Fragment types, descriptors and similarity functions}}{31}{table.5.2}}
\newlabel{fragment_train}{{5.2}{31}{Train without weights / Train with weights - Fragment types, descriptors and similarity functions}{table.5.2}{}}
\@writefile{lot}{\contentsline {table}{\numberline {5.3}{\ignorespaces Difference in AUC with and without weights using train data- Fragment types, descriptors and similarity functions}}{32}{table.5.3}}
\newlabel{fragment_train_difference}{{5.3}{32}{Difference in AUC with and without weights using train data- Fragment types, descriptors and similarity functions}{table.5.3}{}}
\@writefile{toc}{\contentsline {subsubsection}{Test Data}{33}{section*.4}}
\@writefile{lot}{\contentsline {table}{\numberline {5.4}{\ignorespaces Test without weights / Test with weights - Fragment types, descriptors and similarity functions}}{33}{table.5.4}}
\newlabel{fragment_test}{{5.4}{33}{Test without weights / Test with weights - Fragment types, descriptors and similarity functions}{table.5.4}{}}
\@writefile{lot}{\contentsline {table}{\numberline {5.5}{\ignorespaces Difference in AUC with and without weights using test data - Fragment types, descriptors and similarity functions}}{33}{table.5.5}}
\newlabel{fragment_test_difference}{{5.5}{33}{Difference in AUC with and without weights using test data - Fragment types, descriptors and similarity functions}{table.5.5}{}}
\@writefile{lot}{\contentsline {table}{\numberline {5.6}{\ignorespaces RDKit descriptors, ecfp.1 fragments, euclidean100 similarity function when used with correlation 0 - which means only molecular weight is used as a descriptor}}{34}{table.5.6}}
\newlabel{corr_0}{{5.6}{34}{RDKit descriptors, ecfp.1 fragments, euclidean100 similarity function when used with correlation 0 - which means only molecular weight is used as a descriptor}{table.5.6}{}}
\@writefile{lot}{\contentsline {table}{\numberline {5.7}{\ignorespaces RDKit descriptors, ecfp.1 fragments, euclidean100 similarity function with random weights}}{35}{table.5.7}}
\newlabel{random_weights}{{5.7}{35}{RDKit descriptors, ecfp.1 fragments, euclidean100 similarity function with random weights}{table.5.7}{}}
\@writefile{toc}{\contentsline {subsubsection}{Conclusion}{35}{section*.5}}
\@writefile{toc}{\contentsline {subsection}{\numberline {5.3.2}Correlated descriptors}{35}{subsection.5.3.2}}
\newlabel{Correlated}{{5.3.2}{35}{Correlated descriptors}{subsection.5.3.2}{}}
\@writefile{lot}{\contentsline {table}{\numberline {5.8}{\ignorespaces Test without weights / Test with weights - Correlation treshold =\textgreater Number of descriptors}}{36}{table.5.8}}
\newlabel{corr}{{5.8}{36}{Test without weights / Test with weights - Correlation treshold =\textgreater Number of descriptors}{table.5.8}{}}
\@writefile{toc}{\contentsline {subsubsection}{Conclusion}{36}{section*.6}}
\@writefile{toc}{\contentsline {subsection}{\numberline {5.3.3}Fragment noise reduction treshold}{36}{subsection.5.3.3}}
\newlabel{Noise}{{5.3.3}{36}{Fragment noise reduction treshold}{subsection.5.3.3}{}}
\@writefile{lot}{\contentsline {table}{\numberline {5.9}{\ignorespaces Test without weights / Test with weights - Fragment noise treshold =\textgreater Number unique fragments in all molecules}}{37}{table.5.9}}
\newlabel{noise_treshold}{{5.9}{37}{Test without weights / Test with weights - Fragment noise treshold =\textgreater Number unique fragments in all molecules}{table.5.9}{}}
\@writefile{toc}{\contentsline {subsubsection}{Conclusion}{37}{section*.7}}
\@writefile{toc}{\contentsline {subsection}{\numberline {5.3.4}Temperature, cooling, distance and number of dimension to change}{37}{subsection.5.3.4}}
\newlabel{temp_cool_dim}{{5.3.4}{37}{Temperature, cooling, distance and number of dimension to change}{subsection.5.3.4}{}}
\@writefile{lot}{\contentsline {table}{\numberline {5.10}{\ignorespaces Test without weights / Test with weights - Temperature and cooling}}{38}{table.5.10}}
\newlabel{temp_cool}{{5.10}{38}{Test without weights / Test with weights - Temperature and cooling}{table.5.10}{}}
\@writefile{lot}{\contentsline {table}{\numberline {5.11}{\ignorespaces Test without weights / Test with weights - Distance of weights}}{38}{table.5.11}}
\newlabel{distance}{{5.11}{38}{Test without weights / Test with weights - Distance of weights}{table.5.11}{}}
\@writefile{lof}{\contentsline {figure}{\numberline {5.1}{\ignorespaces euclidean100, distance 10, simulated annealing for 1 split}}{39}{figure.5.1}}
\newlabel{distance_AUC_1}{{5.1}{39}{euclidean100, distance 10, simulated annealing for 1 split}{figure.5.1}{}}
\@writefile{lof}{\contentsline {figure}{\numberline {5.2}{\ignorespaces euclidean100, distance 100, simulated annealing for 1 split}}{39}{figure.5.2}}
\newlabel{distance_AUC_2}{{5.2}{39}{euclidean100, distance 100, simulated annealing for 1 split}{figure.5.2}{}}
\@writefile{lot}{\contentsline {table}{\numberline {5.12}{\ignorespaces Test without weights / Test with weights - Dimension}}{39}{table.5.12}}
\newlabel{dimensions}{{5.12}{39}{Test without weights / Test with weights - Dimension}{table.5.12}{}}
\@writefile{lof}{\contentsline {figure}{\numberline {5.3}{\ignorespaces euclidean, dimension 1, simulated annealing for 1 split}}{39}{figure.5.3}}
\newlabel{dimensions_AUC_1}{{5.3}{39}{euclidean, dimension 1, simulated annealing for 1 split}{figure.5.3}{}}
\@writefile{lof}{\contentsline {figure}{\numberline {5.4}{\ignorespaces euclidean, all dimensions, simulated annealing for 1 split}}{39}{figure.5.4}}
\newlabel{dimensions_AUC_2}{{5.4}{39}{euclidean, all dimensions, simulated annealing for 1 split}{figure.5.4}{}}
\@writefile{toc}{\contentsline {subsubsection}{Conclusion}{40}{section*.8}}
\@writefile{toc}{\contentsline {subsection}{\numberline {5.3.5}Effects of larger train data}{40}{subsection.5.3.5}}
\@writefile{lot}{\contentsline {table}{\numberline {5.13}{\ignorespaces Test without weights / Test with weights - Different datasets}}{40}{table.5.13}}
\newlabel{rozsirene_vals}{{5.13}{40}{Test without weights / Test with weights - Different datasets}{table.5.13}{}}
\@writefile{lot}{\contentsline {table}{\numberline {5.14}{\ignorespaces Difference in AUC values with and without weights in test data - Different datasets}}{41}{table.5.14}}
\newlabel{rozsirene_diff}{{5.14}{41}{Difference in AUC values with and without weights in test data - Different datasets}{table.5.14}{}}
\@writefile{lot}{\contentsline {table}{\numberline {5.15}{\ignorespaces Train without weights / Train with weights - Different datasets}}{41}{table.5.15}}
\newlabel{rozsirene_train}{{5.15}{41}{Train without weights / Train with weights - Different datasets}{table.5.15}{}}
\@writefile{lot}{\contentsline {table}{\numberline {5.16}{\ignorespaces Difference in AUC values with and without weights in train data - Different datasets}}{41}{table.5.16}}
\newlabel{rozsirene_train_diff}{{5.16}{41}{Difference in AUC values with and without weights in train data - Different datasets}{table.5.16}{}}
\@writefile{toc}{\contentsline {subsubsection}{Conclusion}{41}{section*.9}}
\@writefile{toc}{\contentsline {subsection}{\numberline {5.3.6}Comparison to traditional methods}{41}{subsection.5.3.6}}
\@writefile{lof}{\contentsline {figure}{\numberline {5.5}{\ignorespaces Our method using ecfp.1 fragments, euclidean100 similarity function and RDKit descriptors compared to traditional methods on Dataset\textunderscore 20\textunderscore 1000\textunderscore 50\textunderscore 8000}}{42}{figure.5.5}}
\newlabel{Dataset_20}{{5.5}{42}{Our method using ecfp.1 fragments, euclidean100 similarity function and RDKit descriptors compared to traditional methods on Dataset\textunderscore 20\textunderscore 1000\textunderscore 50\textunderscore 8000}{figure.5.5}{}}
\@writefile{lof}{\contentsline {figure}{\numberline {5.6}{\ignorespaces Our method using ecfp.1 fragments, euclidean100 similarity function and RDKit descriptors compared to traditional methods on Dataset\textunderscore 20\textunderscore 1000\textunderscore 50\textunderscore 8000}}{42}{figure.5.6}}
\newlabel{Dataset_50}{{5.6}{42}{Our method using ecfp.1 fragments, euclidean100 similarity function and RDKit descriptors compared to traditional methods on Dataset\textunderscore 20\textunderscore 1000\textunderscore 50\textunderscore 8000}{figure.5.6}{}}
\@writefile{toc}{\contentsline {subsubsection}{Conclusion}{43}{section*.10}}
\@setckpt{experiments}{
\setcounter{page}{44}
\setcounter{equation}{0}
\setcounter{enumi}{4}
\setcounter{enumii}{0}
\setcounter{enumiii}{0}
\setcounter{enumiv}{0}
\setcounter{footnote}{0}
\setcounter{mpfootnote}{0}
\setcounter{part}{0}
\setcounter{chapter}{5}
\setcounter{section}{3}
\setcounter{subsection}{6}
\setcounter{subsubsection}{0}
\setcounter{paragraph}{0}
\setcounter{subparagraph}{0}
\setcounter{figure}{6}
\setcounter{table}{16}
\setcounter{parentequation}{0}
\setcounter{FancyVerbLine}{0}
\setcounter{NAT@ctr}{0}
\setcounter{dirtytalk@qdepth}{0}
\setcounter{lips@count}{0}
\setcounter{blindtext}{1}
\setcounter{Blindtext}{5}
\setcounter{blind@countparstart}{0}
\setcounter{blindlist}{0}
\setcounter{blindlistlevel}{0}
\setcounter{blindlist@level}{0}
\setcounter{blind@listcount}{0}
\setcounter{blind@levelcount}{0}
\setcounter{blind@randomcount}{0}
\setcounter{blind@randommax}{0}
\setcounter{blind@pangramcount}{0}
\setcounter{blind@pangrammax}{0}
\setcounter{Item}{14}
\setcounter{Hfootnote}{0}
\setcounter{bookmark@seq@number}{43}
\setcounter{thm}{0}
\setcounter{defn}{0}
\setcounter{section@level}{3}
}
