\relax 
\providecommand\hyper@newdestlabel[2]{}
\citation{HokszaSkoda}
\@writefile{toc}{\contentsline {chapter}{\numberline {2}Our approach to similarity searching LBVS}{13}{chapter.2}}
\@writefile{lof}{\addvspace {10\p@ }}
\@writefile{lot}{\addvspace {10\p@ }}
\@writefile{toc}{\contentsline {section}{\numberline {2.1}Fragment-feature molecular representation}{13}{section.2.1}}
\@writefile{toc}{\contentsline {section}{\numberline {2.2}Weights}{14}{section.2.2}}
\@writefile{lof}{\contentsline {figure}{\numberline {2.1}{\ignorespaces Diagram of weighted fragment-feature molecular representation}}{14}{figure.2.1}}
\newlabel{weighted_fragment_feature}{{2.1}{14}{Diagram of weighted fragment-feature molecular representation}{figure.2.1}{}}
\@writefile{toc}{\contentsline {section}{\numberline {2.3}Why use fragments}{15}{section.2.3}}
\@writefile{toc}{\contentsline {section}{\numberline {2.4}Why use weights and how to find them}{15}{section.2.4}}
\@writefile{toc}{\contentsline {section}{\numberline {2.5}Similarity Functions}{16}{section.2.5}}
\newlabel{Similarity}{{2.5}{16}{Similarity Functions}{section.2.5}{}}
\@writefile{toc}{\contentsline {subsection}{\numberline {2.5.1}Euclidean Similarity}{16}{subsection.2.5.1}}
\@writefile{toc}{\contentsline {subsection}{\numberline {2.5.2}Manhattan Similarity}{17}{subsection.2.5.2}}
\@writefile{toc}{\contentsline {subsection}{\numberline {2.5.3}Simple Matching Similarity}{17}{subsection.2.5.3}}
\@writefile{toc}{\contentsline {subsection}{\numberline {2.5.4}Nfrag Similarity}{18}{subsection.2.5.4}}
\newlabel{Nfrag}{{2.5.4}{18}{Nfrag Similarity}{subsection.2.5.4}{}}
\@setckpt{fragment_feature}{
\setcounter{page}{19}
\setcounter{equation}{7}
\setcounter{enumi}{2}
\setcounter{enumii}{0}
\setcounter{enumiii}{0}
\setcounter{enumiv}{0}
\setcounter{footnote}{0}
\setcounter{mpfootnote}{0}
\setcounter{part}{0}
\setcounter{chapter}{2}
\setcounter{section}{5}
\setcounter{subsection}{4}
\setcounter{subsubsection}{0}
\setcounter{paragraph}{0}
\setcounter{subparagraph}{0}
\setcounter{figure}{1}
\setcounter{table}{0}
\setcounter{parentequation}{0}
\setcounter{FancyVerbLine}{0}
\setcounter{NAT@ctr}{0}
\setcounter{dirtytalk@qdepth}{0}
\setcounter{lips@count}{0}
\setcounter{blindtext}{1}
\setcounter{Blindtext}{5}
\setcounter{blind@countparstart}{0}
\setcounter{blindlist}{0}
\setcounter{blindlistlevel}{0}
\setcounter{blindlist@level}{0}
\setcounter{blind@listcount}{0}
\setcounter{blind@levelcount}{0}
\setcounter{blind@randomcount}{0}
\setcounter{blind@randommax}{0}
\setcounter{blind@pangramcount}{0}
\setcounter{blind@pangrammax}{0}
\setcounter{Item}{10}
\setcounter{Hfootnote}{0}
\setcounter{bookmark@seq@number}{18}
\setcounter{thm}{0}
\setcounter{defn}{0}
\setcounter{section@level}{2}
}
