\relax 
\providecommand\hyper@newdestlabel[2]{}
\citation{Annealing}
\@writefile{toc}{\contentsline {chapter}{\numberline {3}Finding the weights}{19}{chapter.3}}
\@writefile{lof}{\addvspace {10\p@ }}
\@writefile{lot}{\addvspace {10\p@ }}
\@writefile{toc}{\contentsline {section}{\numberline {3.1}Implementation of simulated annealing}{19}{section.3.1}}
\newlabel{Annealing}{{3.1}{19}{Implementation of simulated annealing}{section.3.1}{}}
\@writefile{toc}{\contentsline {section}{\numberline {3.2}Descriptor scaling and reducing fragment noise}{20}{section.3.2}}
\@writefile{toc}{\contentsline {section}{\numberline {3.3}Removing correlated descriptors}{20}{section.3.3}}
\@writefile{toc}{\contentsline {section}{\numberline {3.4}Training and testing weights}{21}{section.3.4}}
\newlabel{Training}{{3.4}{21}{Training and testing weights}{section.3.4}{}}
\@writefile{toc}{\contentsline {section}{\numberline {3.5}The whole method put together}{22}{section.3.5}}
\@writefile{lof}{\contentsline {figure}{\numberline {3.1}{\ignorespaces The complete diagram of our method}}{22}{figure.3.1}}
\newlabel{diagram}{{3.1}{22}{The complete diagram of our method}{figure.3.1}{}}
\@setckpt{implementation}{
\setcounter{page}{23}
\setcounter{equation}{1}
\setcounter{enumi}{2}
\setcounter{enumii}{0}
\setcounter{enumiii}{0}
\setcounter{enumiv}{0}
\setcounter{footnote}{0}
\setcounter{mpfootnote}{0}
\setcounter{part}{0}
\setcounter{chapter}{3}
\setcounter{section}{5}
\setcounter{subsection}{0}
\setcounter{subsubsection}{0}
\setcounter{paragraph}{0}
\setcounter{subparagraph}{0}
\setcounter{figure}{1}
\setcounter{table}{0}
\setcounter{parentequation}{0}
\setcounter{FancyVerbLine}{0}
\setcounter{NAT@ctr}{0}
\setcounter{dirtytalk@qdepth}{0}
\setcounter{lips@count}{0}
\setcounter{blindtext}{1}
\setcounter{Blindtext}{5}
\setcounter{blind@countparstart}{0}
\setcounter{blindlist}{0}
\setcounter{blindlistlevel}{0}
\setcounter{blindlist@level}{0}
\setcounter{blind@listcount}{0}
\setcounter{blind@levelcount}{0}
\setcounter{blind@randomcount}{0}
\setcounter{blind@randommax}{0}
\setcounter{blind@pangramcount}{0}
\setcounter{blind@pangrammax}{0}
\setcounter{Item}{10}
\setcounter{Hfootnote}{0}
\setcounter{bookmark@seq@number}{24}
\setcounter{thm}{0}
\setcounter{defn}{0}
\setcounter{section@level}{1}
}
