\relax 
\providecommand\hyper@newdestlabel[2]{}
\@writefile{toc}{\contentsline {chapter}{\numberline {B}Programmer Documentation}{59}{appendix.B}}
\@writefile{lof}{\addvspace {10\p@ }}
\@writefile{lot}{\addvspace {10\p@ }}
\newlabel{Analysis}{{B}{59}{Programmer Documentation}{appendix.B}{}}
\@writefile{toc}{\contentsline {section}{\numberline {B.1}Client-Server Communication}{60}{section.B.1}}
\@writefile{toc}{\contentsline {section}{\numberline {B.2}Creating molecular representation - data preprocessing}{61}{section.B.2}}
\newlabel{Preprocessing}{{B.2}{61}{Creating molecular representation - data preprocessing}{section.B.2}{}}
\@writefile{toc}{\contentsline {section}{\numberline {B.3}Creating New Similarity Function}{62}{section.B.3}}
\@writefile{toc}{\contentsline {section}{\numberline {B.4}Writing Custom Optimization Algorithm}{62}{section.B.4}}
\@setckpt{programmer}{
\setcounter{page}{63}
\setcounter{equation}{0}
\setcounter{enumi}{6}
\setcounter{enumii}{0}
\setcounter{enumiii}{0}
\setcounter{enumiv}{0}
\setcounter{footnote}{0}
\setcounter{mpfootnote}{0}
\setcounter{part}{0}
\setcounter{chapter}{2}
\setcounter{section}{4}
\setcounter{subsection}{0}
\setcounter{subsubsection}{0}
\setcounter{paragraph}{0}
\setcounter{subparagraph}{0}
\setcounter{figure}{0}
\setcounter{table}{0}
\setcounter{parentequation}{0}
\setcounter{FancyVerbLine}{0}
\setcounter{NAT@ctr}{21}
\setcounter{dirtytalk@qdepth}{0}
\setcounter{lips@count}{0}
\setcounter{blindtext}{1}
\setcounter{Blindtext}{5}
\setcounter{blind@countparstart}{0}
\setcounter{blindlist}{0}
\setcounter{blindlistlevel}{0}
\setcounter{blindlist@level}{0}
\setcounter{blind@listcount}{0}
\setcounter{blind@levelcount}{0}
\setcounter{blind@randomcount}{0}
\setcounter{blind@randommax}{0}
\setcounter{blind@pangramcount}{0}
\setcounter{blind@pangrammax}{0}
\setcounter{Item}{20}
\setcounter{Hfootnote}{0}
\setcounter{bookmark@seq@number}{59}
\setcounter{thm}{0}
\setcounter{defn}{0}
\setcounter{section@level}{1}
}
