This is BibTeX, Version 0.99d (TeX Live 2013/Debian)
Capacity: max_strings=35307, hash_size=35307, hash_prime=30011
The top-level auxiliary file: thesis.aux
A level-1 auxiliary file: title.aux
A level-1 auxiliary file: introduction.aux
A level-1 auxiliary file: virtual_screening.aux
A level-1 auxiliary file: fragment_feature.aux
A level-1 auxiliary file: implementation.aux
A level-1 auxiliary file: wefrag.aux
A level-1 auxiliary file: experiments.aux
A level-1 auxiliary file: discussion.aux
A level-1 auxiliary file: bibliography.aux
The style file: unsrt.bst
A level-1 auxiliary file: file_formats.aux
A level-1 auxiliary file: programmer.aux
A level-1 auxiliary file: user.aux
Database file #1: bibliography.bib
Warning--entry type for "ecfpFrag" isn't style-file defined
--line 178 of file bibliography.bib
Warning--entry type for "fingerprint" isn't style-file defined
--line 185 of file bibliography.bib
Warning--entry type for "rdkit" isn't style-file defined
--line 192 of file bibliography.bib
Name 1 in "Bohacek, R.S., McMartin, C., and Guida, W.C." has a comma at the end for entry Bohacek
while executing---line 944 of file unsrt.bst
Too many commas in name 1 of "Bohacek, R.S., McMartin, C., and Guida, W.C." for entry Bohacek
while executing---line 944 of file unsrt.bst
Too many commas in name 1 of "Christoph Sotriffer, Raimund Mannhold, Hugo Kubinyi, Gerd Folkers" for entry VS
while executing---line 944 of file unsrt.bst
Name 1 in "Patterson, D.E., Cramer, R.D., Ferguson, A.M., Clark, R.D., and Weinberger, L.E." has a comma at the end for entry Petterson
while executing---line 944 of file unsrt.bst
Too many commas in name 1 of "Patterson, D.E., Cramer, R.D., Ferguson, A.M., Clark, R.D., and Weinberger, L.E." for entry Petterson
while executing---line 944 of file unsrt.bst
Too many commas in name 1 of "Patterson, D.E., Cramer, R.D., Ferguson, A.M., Clark, R.D., and Weinberger, L.E." for entry Petterson
while executing---line 944 of file unsrt.bst
Too many commas in name 1 of "Patterson, D.E., Cramer, R.D., Ferguson, A.M., Clark, R.D., and Weinberger, L.E." for entry Petterson
while executing---line 944 of file unsrt.bst
Too many commas in name 1 of "Patterson, D.E., Cramer, R.D., Ferguson, A.M., Clark, R.D., and Weinberger, L.E." for entry Petterson
while executing---line 944 of file unsrt.bst
Too many commas in name 1 of "Patterson, D.E., Cramer, R.D., Ferguson, A.M., Clark, R.D., and Weinberger, L.E." for entry Petterson
while executing---line 944 of file unsrt.bst
Too many commas in name 1 of "Lipinski, C.A.; Lombardo, F.; Dominy, B.W.; Feeney, P.J." for entry Lombardo
while executing---line 944 of file unsrt.bst
Too many commas in name 1 of "Lipinski, C.A.; Lombardo, F.; Dominy, B.W.; Feeney, P.J." for entry Lombardo
while executing---line 944 of file unsrt.bst
Too many commas in name 1 of "Lionta E, Spyrou G, Vassilatis DK, Cournia Z" for entry Lionta
while executing---line 944 of file unsrt.bst
Too many commas in name 1 of "Dong-Sheng Cao, Qingsong Xu, Qiannan Hu, Yi-Zeng Liang" for entry fingerprint
while executing---line 944 of file unsrt.bst
Too many commas in name 1 of "Steinbeck, C.; Hoppe, C.; Kuhn, S.; Floris, M.; Guha, R.; Willighagen, E. L." for entry CDK
while executing---line 944 of file unsrt.bst
Too many commas in name 1 of "Steinbeck, C.; Hoppe, C.; Kuhn, S.; Floris, M.; Guha, R.; Willighagen, E. L." for entry CDK
while executing---line 944 of file unsrt.bst
Too many commas in name 1 of "Steinbeck, C.; Hoppe, C.; Kuhn, S.; Floris, M.; Guha, R.; Willighagen, E. L." for entry CDK
while executing---line 944 of file unsrt.bst
Too many commas in name 1 of "Steinbeck, C.; Hoppe, C.; Kuhn, S.; Floris, M.; Guha, R.; Willighagen, E. L." for entry CDK
while executing---line 944 of file unsrt.bst
Name 1 in "R. Nilakantan, N. Bauman, J. S. Dixon, and R. Venkataraghavan" has a comma at the end for entry TT
while executing---line 944 of file unsrt.bst
You've used 21 entries,
            1791 wiz_defined-function locations,
            583 strings with 6792 characters,
and the built_in function-call counts, 4901 in all, are:
= -- 494
> -- 116
< -- 10
+ -- 50
- -- 29
* -- 145
:= -- 665
add.period$ -- 66
call.type$ -- 21
change.case$ -- 16
chr.to.int$ -- 0
cite$ -- 21
duplicate$ -- 318
empty$ -- 472
format.name$ -- 29
if$ -- 1227
int.to.chr$ -- 0
int.to.str$ -- 21
missing$ -- 23
newline$ -- 111
num.names$ -- 21
pop$ -- 99
preamble$ -- 1
purify$ -- 0
quote$ -- 0
skip$ -- 248
stack$ -- 0
substring$ -- 244
swap$ -- 159
text.length$ -- 10
text.prefix$ -- 0
top$ -- 0
type$ -- 0
warning$ -- 0
while$ -- 36
width$ -- 23
write$ -- 226
(There were 18 error messages)
