\relax 
\providecommand\hyper@newdestlabel[2]{}
\providecommand\HyperFirstAtBeginDocument{\AtBeginDocument}
\HyperFirstAtBeginDocument{\ifx\hyper@anchor\@undefined
\global\let\oldcontentsline\contentsline
\gdef\contentsline#1#2#3#4{\oldcontentsline{#1}{#2}{#3}}
\global\let\oldnewlabel\newlabel
\gdef\newlabel#1#2{\newlabelxx{#1}#2}
\gdef\newlabelxx#1#2#3#4#5#6{\oldnewlabel{#1}{{#2}{#3}}}
\AtEndDocument{\ifx\hyper@anchor\@undefined
\let\contentsline\oldcontentsline
\let\newlabel\oldnewlabel
\fi}
\fi}
\global\let\hyper@last\relax 
\gdef\HyperFirstAtBeginDocument#1{#1}
\providecommand\HyField@AuxAddToFields[1]{}
\providecommand\HyField@AuxAddToCoFields[2]{}
\@input{title.aux}
\@input{introduction.aux}
\@input{virtual_screening.aux}
\@input{fragment_feature.aux}
\@input{implementation.aux}
\@input{wefrag.aux}
\@input{experiments.aux}
\@input{discussion.aux}
\@input{bibliography.aux}
\@writefile{toc}{\contentsline {chapter}{List of Figures}{49}{chapter*.12}}
\@writefile{toc}{\contentsline {chapter}{List of Tables}{51}{chapter*.13}}
\@writefile{toc}{\contentsline {chapter}{List of Abbreviations}{53}{chapter*.14}}
\@writefile{toc}{\contentsline {chapter}{Attachments}{55}{chapter*.15}}
\@writefile{lot}{\contentsline {table}{\numberline {6.1}{\ignorespaces Complete table for comparions of euclidean100 to traditional methods for the Dataset\textunderscore 20\textunderscore 1000\textunderscore 50\textunderscore 8000}}{55}{table.6.1}}
\newlabel{growing}{{6.1}{55}{Complete table for comparions of euclidean100 to traditional methods for the Dataset\textunderscore 20\textunderscore 1000\textunderscore 50\textunderscore 8000}{table.6.1}{}}
\@writefile{lot}{\contentsline {table}{\numberline {6.2}{\ignorespaces Complete table for comparions of euclidean100 to traditional methods for the Dataset\textunderscore 50\textunderscore 1000\textunderscore 50\textunderscore 8000}}{56}{table.6.2}}
\newlabel{growing_rozsirene}{{6.2}{56}{Complete table for comparions of euclidean100 to traditional methods for the Dataset\textunderscore 50\textunderscore 1000\textunderscore 50\textunderscore 8000}{table.6.2}{}}
\@input{file_formats.aux}
\@input{programmer.aux}
\@input{user.aux}
\providecommand\NAT@force@numbers{}\NAT@force@numbers
