\relax 
\providecommand\hyper@newdestlabel[2]{}
\@writefile{toc}{\contentsline {chapter}{\numberline {C}User Documentation}{63}{appendix.C}}
\@writefile{lof}{\addvspace {10\p@ }}
\@writefile{lot}{\addvspace {10\p@ }}
\@writefile{toc}{\contentsline {section}{\numberline {C.1}System Requirements}{63}{section.C.1}}
\@writefile{toc}{\contentsline {section}{\numberline {C.2}Setup}{63}{section.C.2}}
\newlabel{setup}{{C.2}{63}{Setup}{section.C.2}{}}
\@writefile{toc}{\contentsline {section}{\numberline {C.3}Input - commands and data}{64}{section.C.3}}
\@writefile{lof}{\contentsline {figure}{\numberline {C.1}{\ignorespaces Screenshot of WeFrag menu}}{64}{figure.C.1}}
\newlabel{wefrag_obr}{{C.1}{64}{Screenshot of WeFrag menu}{figure.C.1}{}}
\@writefile{toc}{\contentsline {section}{\numberline {C.4}Examples of Usage}{65}{section.C.4}}
\@setckpt{user}{
\setcounter{page}{67}
\setcounter{equation}{0}
\setcounter{enumi}{15}
\setcounter{enumii}{0}
\setcounter{enumiii}{0}
\setcounter{enumiv}{0}
\setcounter{footnote}{0}
\setcounter{mpfootnote}{0}
\setcounter{part}{0}
\setcounter{chapter}{3}
\setcounter{section}{4}
\setcounter{subsection}{0}
\setcounter{subsubsection}{0}
\setcounter{paragraph}{0}
\setcounter{subparagraph}{0}
\setcounter{figure}{1}
\setcounter{table}{0}
\setcounter{parentequation}{0}
\setcounter{FancyVerbLine}{0}
\setcounter{NAT@ctr}{21}
\setcounter{dirtytalk@qdepth}{0}
\setcounter{lips@count}{0}
\setcounter{blindtext}{1}
\setcounter{Blindtext}{5}
\setcounter{blind@countparstart}{0}
\setcounter{blindlist}{0}
\setcounter{blindlistlevel}{0}
\setcounter{blindlist@level}{0}
\setcounter{blind@listcount}{0}
\setcounter{blind@levelcount}{0}
\setcounter{blind@randomcount}{0}
\setcounter{blind@randommax}{0}
\setcounter{blind@pangramcount}{0}
\setcounter{blind@pangrammax}{0}
\setcounter{Item}{35}
\setcounter{Hfootnote}{0}
\setcounter{bookmark@seq@number}{64}
\setcounter{thm}{0}
\setcounter{defn}{0}
\setcounter{section@level}{1}
}
