\relax 
\providecommand\hyper@newdestlabel[2]{}
\citation{VS}
\citation{VS}
\@writefile{toc}{\contentsline {chapter}{\numberline {1}Introduction to virtual screening and related theory}{5}{chapter.1}}
\@writefile{lof}{\addvspace {10\p@ }}
\@writefile{lot}{\addvspace {10\p@ }}
\@writefile{toc}{\contentsline {section}{\numberline {1.1}What is virtual screening and its categories}{5}{section.1.1}}
\@writefile{lof}{\contentsline {figure}{\numberline {1.1}{\ignorespaces Diagram of chemical space - ilustration from \cite  {VS}}}{5}{figure.1.1}}
\newlabel{chemspace}{{1.1}{5}{Diagram of chemical space - ilustration from \cite {VS}}{figure.1.1}{}}
\citation{Maggiora}
\citation{Petterson}
\citation{Stahura}
\citation{Lombardo}
\citation{Lionta}
\citation{TodeschiniCnsonni}
\citation{Todeschini}
\citation{fingerprint}
\citation{fingerprint}
\citation{fingerprint}
\@writefile{toc}{\contentsline {section}{\numberline {1.2}Ligand based virtual screening with descriptors}{7}{section.1.2}}
\@writefile{lof}{\contentsline {figure}{\numberline {1.2}{\ignorespaces Ilustration of descriptors - from \cite  {fingerprint}}}{7}{figure.1.2}}
\newlabel{descriptors}{{1.2}{7}{Ilustration of descriptors - from \cite {fingerprint}}{figure.1.2}{}}
\@writefile{lof}{\contentsline {figure}{\numberline {1.3}{\ignorespaces Ilustration of fingerprint, colorful bits are set to 1, the rest is set to 0 - from \cite  {fingerprint}}}{7}{figure.1.3}}
\newlabel{fingerprints}{{1.3}{7}{Ilustration of fingerprint, colorful bits are set to 1, the rest is set to 0 - from \cite {fingerprint}}{figure.1.3}{}}
\citation{ecfpFrag}
\citation{PaDEL}
\citation{RDKit}
\@writefile{lof}{\contentsline {figure}{\numberline {1.4}{\ignorespaces Diagram of LBVS with descriptors}}{8}{figure.1.4}}
\newlabel{lbvs}{{1.4}{8}{Diagram of LBVS with descriptors}{figure.1.4}{}}
\@writefile{toc}{\contentsline {section}{\numberline {1.3}Molecular Fragments}{8}{section.1.3}}
\@writefile{lof}{\contentsline {figure}{\numberline {1.5}{\ignorespaces Ilustration of circular fragments - from \cite  {ecfpFrag}}}{9}{figure.1.5}}
\newlabel{ecfp}{{1.5}{9}{Ilustration of circular fragments - from \cite {ecfpFrag}}{figure.1.5}{}}
\@writefile{toc}{\contentsline {section}{\numberline {1.4}RDKit and PaDEL descriptors}{9}{section.1.4}}
\@writefile{toc}{\contentsline {section}{\numberline {1.5}Scoring - ROC and AUC}{9}{section.1.5}}
\@writefile{toc}{\contentsline {section}{\numberline {1.6}Simmulated Annealing}{10}{section.1.6}}
\newlabel{AnnTheory}{{1.6}{10}{Simmulated Annealing}{section.1.6}{}}
\citation{Annealing}
\@setckpt{virtual_screening}{
\setcounter{page}{12}
\setcounter{equation}{0}
\setcounter{enumi}{4}
\setcounter{enumii}{0}
\setcounter{enumiii}{0}
\setcounter{enumiv}{0}
\setcounter{footnote}{0}
\setcounter{mpfootnote}{0}
\setcounter{part}{0}
\setcounter{chapter}{1}
\setcounter{section}{6}
\setcounter{subsection}{0}
\setcounter{subsubsection}{0}
\setcounter{paragraph}{0}
\setcounter{subparagraph}{0}
\setcounter{figure}{5}
\setcounter{table}{0}
\setcounter{parentequation}{0}
\setcounter{FancyVerbLine}{0}
\setcounter{NAT@ctr}{0}
\setcounter{dirtytalk@qdepth}{0}
\setcounter{lips@count}{0}
\setcounter{blindtext}{1}
\setcounter{Blindtext}{5}
\setcounter{blind@countparstart}{0}
\setcounter{blindlist}{0}
\setcounter{blindlistlevel}{0}
\setcounter{blindlist@level}{0}
\setcounter{blind@listcount}{0}
\setcounter{blind@levelcount}{0}
\setcounter{blind@randomcount}{0}
\setcounter{blind@randommax}{0}
\setcounter{blind@pangramcount}{0}
\setcounter{blind@pangrammax}{0}
\setcounter{Item}{8}
\setcounter{Hfootnote}{0}
\setcounter{bookmark@seq@number}{8}
\setcounter{thm}{0}
\setcounter{defn}{0}
\setcounter{section@level}{1}
}
