cluster_directory: /afs/ms/u/f/filandra/WeFrag splits_num: 4 seed: RANDOM
u-pl0.ms.mff.cuni.cz 195.113.21.130
u-pl1.ms.mff.cuni.cz 195.113.21.131
u-pl2.ms.mff.cuni.cz 195.113.21.132
u-pl3.ms.mff.cuni.cz 195.113.21.133
u-pl4.ms.mff.cuni.cz 195.113.21.134
u-pl5.ms.mff.cuni.cz 195.113.21.135
u-pl6.ms.mff.cuni.cz 195.113.21.136
u-pl7.ms.mff.cuni.cz 195.113.21.137
u-pl8.ms.mff.cuni.cz 195.113.21.138
u-pl9.ms.mff.cuni.cz 195.113.21.139
u-pl10.ms.mff.cuni.cz 195.113.21.140
u-pl11.ms.mff.cuni.cz 195.113.21.141
u-pl12.ms.mff.cuni.cz 195.113.21.142
u-pl13.ms.mff.cuni.cz 195.113.21.143
u-pl14.ms.mff.cuni.cz 195.113.21.144
u-pl15.ms.mff.cuni.cz 195.113.21.145
u-pl16.ms.mff.cuni.cz 195.113.21.146
u-pl17.ms.mff.cuni.cz 195.113.21.147
u-pl18.ms.mff.cuni.cz 195.113.21.148
u-pl19.ms.mff.cuni.cz 195.113.21.149
u-pl20.ms.mff.cuni.cz 195.113.21.150
u-pl21.ms.mff.cuni.cz 195.113.21.151
u-pl22.ms.mff.cuni.cz 195.113.21.152
u-pl23.ms.mff.cuni.cz 195.113.21.153
u-pl24.ms.mff.cuni.cz 195.113.21.154
u-pl25.ms.mff.cuni.cz 195.113.21.155
u-pl26.ms.mff.cuni.cz 195.113.21.156
u-pl27.ms.mff.cuni.cz 195.113.21.157
u-pl28.ms.mff.cuni.cz 195.113.21.158
u-pl29.ms.mff.cuni.cz 195.113.21.159
u-pl30.ms.mff.cuni.cz 195.113.21.160
u-pl31.ms.mff.cuni.cz 195.113.21.161
u-pl32.ms.mff.cuni.cz 195.113.21.162
u-pl33.ms.mff.cuni.cz 195.113.21.163
u-pl34.ms.mff.cuni.cz 195.113.21.164
u-pl35.ms.mff.cuni.cz 195.113.21.206
u-pl36.ms.mff.cuni.cz 195.113.21.207
u-pl37.ms.mff.cuni.cz 195.113.21.208
